Referencia;TELEFONO
954785848;351910523266
954785849;351912977431
954785850;351253684153
954785851;351916362267
954785852;351917733438
954785853;351252054931
954785854;351919500332
954785855;351925098183
954785857;351936753228
954785858;351963157857
954785859;351214015671
954785860;351229016802
954785847;35196362267
954785856;351933397396
954785861;351966484181
954785862;351967043266
954785863;351251653563
954785864;351211140268
